[2019-11-16 20:38:18.927829] [info] device:HP,oc:Ubuntu,with data(Some text) 
[2019-11-16 21:01:09.350404] [info] 
[2019-11-16 21:01:56.307260] [error] name is empty
[2019-11-16 21:01:56.307390] [info] 
[2019-11-16 21:03:19.559139] [error] name is empty
[2019-11-16 21:03:19.559266] [info] 
[2019-11-16 21:04:11.334119] [error] name is empty
[2019-11-16 21:05:22.478627] [error] name is empty
[2019-11-16 21:05:22.478730] [info] ok
[2019-11-16 21:06:36.688011] [info] ok
[2019-11-16 21:07:13.723100] [error] oc is empty
[2019-11-16 21:07:13.723242] [info] ok
[2019-11-16 21:08:07.773827] [error] oc is empty
[2019-11-16 21:08:07.773929] [info] -\-\-\-\-\-\-\-\-\-\-\-\-\-\-\-\-\-\-\-
